Generate Synthetic Data with Various Structures — data_gen • spinebil
…
If type = "polynomial", returns a matrix (n x degree).

Otherwise a tibble with columns:

x: Numeric vector of x-values

y: Numeric vector of y-values

structure: Character name of the structure type

    Examples

data_gen("linear", n = 200)
#> # A tibble: 200 × 3
#>         x      y structure
#>     <dbl>  <dbl> <chr>    
#>  1 0.813  1.62   linear   
#>  2 0.0436 0.0856 linear   
#>  3 0.505  1.01   linear   
#>  4 0.242  0.474  linear   
#>  5 0.589  1.18   linear   
#>  6 0.971  1.94   linear   
#>  7 0.233  0.466  linear   
#>  8 0.867  1.73   linear   
#>  9 0.111  0.231  linear   
#> 10 0.801  1.60   linear   
#> # ℹ 190 more rows
…
#> [200,]  0.56899191 -0.68818146 -0.993988192  0.096778274
#> attr(,"coefs")
#> attr(,"coefs")$alpha
#> [1] 0.4989729 0.4723856 0.5162145 0.5139908
#> 
#> attr(,"coefs")$norm2
#> [1]   1.00000000 200.00000000  16.58458087   1.11767200   0.07007317
#> [6]   0.00429851
#> 
#> attr(,"degree")
#> [1] 1 2 3 4
#> attr(,"class")
#> [1] "poly"   "matrix"
data_gen("all", n = 200)
#> # A tibble: 2,602 × 3
#>         x      y structure
#>     <dbl>  <dbl> <chr>    
#>  1 0.544  1.10   linear   
#>  2 0.782  1.56   linear   
#>  3 0.608  1.23   linear   
#>  4 0.0892 0.182  linear   
#>  5 0.942  1.87   linear   
#>  6 0.906  1.81   linear   
#>  7 0.715  1.41   linear   
#>  8 0.641  1.28   linear   
#>  9 0.476  0.967  linear   
#> 10 0.0271 0.0398 linear   
#> # ℹ 2,592 more rows
…
