Simulate and Compare Index Scale on Structured vs Noisy Data — ppi_scale • spinebil
…
    A tibble with columns:
simulation: simulation number

var_i, var_j: variable names

var_pair: pair name as a string

sigma: 0 for structured data, 1 for noisy data

index: index value returned by index_fun

    Examples

ppi_scale(data_gen("polynomial", degree = 3), scag_index("stringy"), n_sim = 10)
#> # A tibble: 60 × 6
#>    simulation var_i var_j var_pair sigma index
#>         <int> <chr> <chr> <chr>    <dbl> <dbl>
#>  1          1 1     2     1-2          0 1    
#>  2          1 1     2     1-2          1 0.708
#>  3          1 1     3     1-3          0 1    
#>  4          1 1     3     1-3          1 0.743
#>  5          1 2     3     2-3          0 0.996
#>  6          1 2     3     2-3          1 0.743
#>  7          2 1     2     1-2          0 1    
#>  8          2 1     2     1-2          1 0.687
#>  9          2 1     3     1-3          0 1    
#> 10          2 1     3     1-3          1 0.720
#> # ℹ 50 more rows
…
